<svg width="19" height="19" viewBox="0 0 19 19" fill="none" xmlns="http://www.w3.org/2000/svg">
<g id="Frame">
<path id="Vector" d="M8.70825 8.70834V3.95834H10.2916V8.70834H15.0416V10.2917H10.2916V15.0417H8.70825V10.2917H3.95825V8.70834H8.70825Z" fill="white"/>
</g>
</svg>
